Lab5/matlab/mediciones.csv

Record Length,2500,Points,-250.00000000E-3,2.72000003,,Record Length,2500,Points,-250.00000000E-3,2.6799998,,Record Length,2500,Points,-250.00000000E-3,2.6400001,
Sample Interval,199.99999495E-6,s,-249.79999661E-3,2.72000003,,Sample Interval,199.99999495E-6,s,-249.79999661E-3,2.6799998,,Sample Interval,199.99999495E-6,s,-249.79999661E-3,2.6640000,
Trigger Point,1.2500001E3,Samples,-249.59999323E-3,2.72000003,,Trigger Point,1.2500001E3,Samples,-249.59999323E-3,2.6799998,,Trigger Point,1.2500001E3,Samples,-249.59999323E-3,2.6480002,
,,,-249.40000474E-3,2.72000003,,,,,-249.40000474E-3,2.7000000,,,,,-249.40000474E-3,2.6640000,
,,,-249.20000136E-3,2.72000003,,,,,-249.20000136E-3,2.6799998,,,,,-249.20000136E-3,2.6480002,
,,,-248.99999797E-3,2.72000003,,,,,-248.99999797E-3,2.6799998,,,,,-248.99999797E-3,2.6480002,
Source,CH2,,-248.79999459E-3,2.72000003,,Source,CH3,,-248.79999459E-3,2.6799998,,Source,CH4,,-248.79999459E-3,2.6560001,
Vertical Units,Volts,,-248.60000610E-3,2.72000003,,Vertical Units,Volts,,-248.60000610E-3,2.6799998,,Vertical Units,Volts,,-248.60000610E-3,2.6400001,
Vertical Scale,499.999988824E-3,,-248.40000272E-3,2.72000003,,Vertical Scale,499.999988824E-3,,-248.40000272E-3,2.6799998,,Vertical Scale,200.00000950E-3,,-248.40000272E-3,2.6400001,
Vertical Offset,0,,-248.19999933E-3,2.72000003,,Vertical Offset,0,,-248.19999933E-3,2.6799998,,Vertical Offset,0,,-248.19999933E-3,2.6400001,
Horizontal Units,s,,-247.99999595E-3,2.72000003,,Horizontal Units,s,,-247.99999595E-3,2.6799998,,Horizontal Units,s,,-247.99999595E-3,2.6560001,
Horizontal Scale,49.99999874E-3,,-247.80000746E-3,2.72000003,,Horizontal Scale,49.99999874E-3,,-247.80000746E-3,2.6799998,,Horizontal Scale,49.99999874E-3,,-247.80000746E-3,2.6320002,
Pt Fmt,Y,,-247.60000408E-3,2.72000003,,Pt Fmt,Y,,-247.60000408E-3,2.6799998,,Pt Fmt,Y,,-247.60000408E-3,2.6480002,
Yzero,-6.96000000,,-247.40000069E-3,2.72000003,,Yzero,-4.40000000,,-247.40000069E-3,2.6799998,,Yzero,-10.0000000,,-247.40000069E-3,2.6480002,
Probe Atten,1.000000,,-247.19999731E-3,2.72000003,,Probe Atten,1.000000,,-247.19999731E-3,2.6799998,,Probe Atten,1.000000,,-247.19999731E-3,2.6560001,
,,,-246.99999392E-3,2.72000003,,,,,-246.99999392E-3,2.6799998,,,,,-246.99999392E-3,2.6480002,
Note,TDS 2004B - 19:56:45   16/09/2025,,-246.80000544E-3,2.72000003,,Note,TDS 2004B - 19:56:45   16/09/2025,,-246.80000544E-3,2.6799998,,Note,TDS 2004B - 19:56:45   16/09/2025,,-246.80000544E-3,2.6560001,
,,,-246.60000205E-3,2.72000003,,,,,-246.60000205E-3,2.6799998,,,,,-246.60000205E-3,2.6320002,
,,,-246.39999866E-3,2.72000003,,,,,-246.39999866E-3,2.6799998,,,,,-246.39999866E-3,2.6560001,
,,,-246.19999528E-3,2.72000003,,,,,-246.19999528E-3,2.6799998,,,,,-246.19999528E-3,2.6480002,
,,,-246.00000679E-3,2.72000003,,,,,-246.00000679E-3,2.6799998,,,,,-246.00000679E-3,2.6400001,
,,,-245.80000341E-3,2.72000003,,,,,-245.80000341E-3,2.6599998,,,,,-245.80000341E-3,2.6560001,
,,,-245.60000002E-3,2.72000003,,,,,-245.60000002E-3,2.6799998,,,,,-245.60000002E-3,2.6560001,
,,,-245.39999664E-3,2.72000003,,,,,-245.39999664E-3,2.6799998,,,,,-245.39999664E-3,2.6560001,
,,,-245.19999325E-3,2.72000003,,,,,-245.19999325E-3,2.7000000,,,,,-245.19999325E-3,2.6400001,
,,,-245.00000477E-3,2.72000003,,,,,-245.00000477E-3,2.7000000,,,,,-245.00000477E-3,2.6240001,
,,,-244.80000138E-3,2.72000003,,,,,-244.80000138E-3,2.6799998,,,,,-244.80000138E-3,2.6400001,
,,,-244.59999800E-3,2.72000003,,,,,-244.59999800E-3,2.6799998,,,,,-244.59999800E-3,2.6480002,
,,,-244.39999461E-3,2.72000003,,,,,-244.39999461E-3,2.6599998,,,,,-244.39999461E-3,2.6480002,
,,,-244.20000613E-3,2.72000003,,,,,-244.20000613E-3,2.6799998,,,,,-244.20000613E-3,2.6640000,
,,,-244.00000274E-3,2.72000003,,,,,-244.00000274E-3,2.6799998,,,,,-244.00000274E-3,2.6400001,
,,,-243.79999936E-3,2.72000003,,,,,-243.79999936E-3,2.6799998,,,,,-243.79999936E-3,2.6400001,
,,,-243.59999597E-3,2.72000003,,,,,-243.59999597E-3,2.6799998,,,,,-243.59999597E-3,2.6560001,
,,,-243.40000749E-3,2.72000003,,,,,-243.40000749E-3,2.6799998,,,,,-243.40000749E-3,2.6560001,
,,,-243.20000410E-3,2.72000003,,,,,-243.20000410E-3,2.6799998,,,,,-243.20000410E-3,2.6560001,
,,,-243.00000072E-3,2.72000003,,,,,-243.00000072E-3,2.6799998,,,,,-243.00000072E-3,2.6400001,
,,,-242.79999733E-3,2.72000003,,,,,-242.79999733E-3,2.6799998,,,,,-242.79999733E-3,2.6400001,
,,,-242.59999394E-3,2.72000003,,,,,-242.59999394E-3,2.6599998,,,,,-242.59999394E-3,2.6480002,
,,,-242.40000546E-3,2.72000003,,,,,-242.40000546E-3,2.6799998,,,,,-242.40000546E-3,2.6480002,
,,,-242.20000207E-3,2.72000003,,,,,-242.20000207E-3,2.6799998,,,,,-242.20000207E-3,2.6560001,
,,,-241.99999869E-3,2.72000003,,,,,-241.99999869E-3,2.6799998,,,,,-241.99999869E-3,2.6400001,
,,,-241.79999530E-3,2.72000003,,,,,-241.79999530E-3,2.6599998,,,,,-241.79999530E-3,2.6400001,
,,,-241.60000682E-3,2.72000003,,,,,-241.60000682E-3,2.6799998,,,,,-241.60000682E-3,2.6480002,
,,,-241.40000343E-3,2.72000003,,,,,-241.40000343E-3,2.6799998,,,,,-241.40000343E-3,2.6560001,
,,,-241.20000005E-3,2.72000003,,,,,-241.20000005E-3,2.6799998,,,,,-241.20000005E-3,2.6480002,
,,,-240.99999666E-3,2.72000003,,,,,-240.99999666E-3,2.6799998,,,,,-240.99999666E-3,2.6400001,
,,,-240.79999328E-3,2.72000003,,,,,-240.79999328E-3,2.6799998,,,,,-240.79999328E-3,2.6400001,
,,,-240.60000479E-3,2.72000003,,,,,-240.60000479E-3,2.6799998,,,,,-240.60000479E-3,2.6560001,
,,,-240.40000141E-3,2.72000003,,,,,-240.40000141E-3,2.6799998,,,,,-240.40000141E-3,2.6400001,
,,,-240.19999802E-3,2.72000003,,,,,-240.19999802E-3,2.6799998,,,,,-240.19999802E-3,2.6560001,
,,,-239.99999464E-3,2.72000003,,,,,-239.99999464E-3,2.6799998,,,,,-239.99999464E-3,2.6480002,
,,,-239.80000615E-3,2.72000003,,,,,-239.80000615E-3,2.6799998,,,,,-239.80000615E-3,2.6800001,
,,,-239.60000277E-3,2.72000003,,,,,-239.60000277E-3,2.6799998,,,,,-239.60000277E-3,2.6480002,
,,,-239.39999938E-3,2.72000003,,,,,-239.39999938E-3,2.6799998,,,,,-239.39999938E-3,2.6560001,
,,,-239.19999599E-3,2.72000003,,,,,-239.19999599E-3,2.6799998,,,,,-239.19999599E-3,2.6320002,
,,,-239.00000751E-3,2.72000003,,,,,-239.00000751E-3,2.6799998,,,,,-239.00000751E-3,2.6560001,
,,,-238.80000412E-3,2.72000003,,,,,-238.80000412E-3,2.6799998,,,,,-238.80000412E-3,2.6560001,
,,,-238.60000074E-3,2.72000003,,,,,-238.60000074E-3,2.6799998,,,,,-238.60000074E-3,2.6480002,
,,,-238.39999735E-3,2.72000003,,,,,-238.39999735E-3,2.6799998,,,,,-238.39999735E-3,2.6400001,
,,,-238.19999397E-3,2.72000003,,,,,-238.19999397E-3,2.6599998,,,,,-238.19999397E-3,2.6480002,
,,,-238.00000548E-3,2.72000003,,,,,-238.00000548E-3,2.6799998,,,,,-238.00000548E-3,2.6560001,
,,,-237.80000210E-3,2.72000003,,,,,-237.80000210E-3,2.6799998,,,,,-237.80000210E-3,2.6480002,
,,,-237.59999871E-3,2.72000003,,,,,-237.59999871E-3,2.6799998,,,,,-237.59999871E-3,2.6560001,
,,,-237.39999533E-3,2.72000003,,,,,-237.39999533E-3,2.6599998,,,,,-237.39999533E-3,2.6240001,
,,,-237.20000684E-3,2.72000003,,,,,-237.20000684E-3,2.6799998,,,,,-237.20000684E-3,2.6160002,
,,,-237.00000346E-3,2.72000003,,,,,-237.00000346E-3,2.6599998,,,,,-237.00000346E-3,2.6480002,
,,,-236.80000007E-3,2.72000003,,,,,-236.80000007E-3,2.6799998,,,,,-236.80000007E-3,2.6560001,
,,,-236.59999669E-3,2.72000003,,,,,-236.59999669E-3,2.6799998,,,,,-236.59999669E-3,2.6640000,
,,,-236.39999330E-3,2.72000003,,,,,-236.39999330E-3,2.6799998,,,,,-236.39999330E-3,2.6560001,
,,,-236.20000482E-3,2.72000003,,,,,-236.20000482E-3,2.6799998,,,,,-236.20000482E-3,2.6480002,
,,,-236.00000143E-3,2.72000003,,,,,-236.00000143E-3,2.6599998,,,,,-236.00000143E-3,2.6480002,
,,,-235.79999804E-3,2.72000003,,,,,-235.79999804E-3,2.6799998,,,,,-235.79999804E-3,2.6560001,
,,,-235.59999466E-3,2.72000003,,,,,-235.59999466E-3,2.6799998,,,,,-235.59999466E-3,2.6320002,
,,,-235.40000618E-3,2.72000003,,,,,-235.40000618E-3,2.6799998,,,,,-235.40000618E-3,2.6560001,
,,,-235.20000279E-3,2.72000003,,,,,-235.20000279E-3,2.6599998,,,,,-235.20000279E-3,2.6400001,
,,,-234.99999940E-3,2.72000003,,,,,-234.99999940E-3,2.6799998,,,,,-234.99999940E-3,2.6560001,
,,,-234.79999602E-3,2.72000003,,,,,-234.79999602E-3,2.6799998,,,,,-234.79999602E-3,2.6480002,
,,,-234.60000753E-3,2.72000003,,,,,-234.60000753E-3,2.6799998,,,,,-234.60000753E-3,2.6480002,
,,,-234.40000415E-3,2.72000003,,,,,-234.40000415E-3,2.6799998,,,,,-234.40000415E-3,2.6480002,
,,,-234.20000076E-3,2.72000003,,,,,-234.20000076E-3,2.6799998,,,,,-234.20000076E-3,2.6240001,
,,,-233.99999738E-3,2.72000003,,,,,-233.99999738E-3,2.6799998,,,,,-233.99999738E-3,2.6480002,
,,,-233.79999399E-3,2.72000003,,,,,-233.79999399E-3,2.6799998,,,,,-233.79999399E-3,2.6320002,
,,,-233.60000551E-3,2.72000003,,,,,-233.60000551E-3,2.6599998,,,,,-233.60000551E-3,2.6400001,
,,,-233.40000212E-3,2.72000003,,,,,-233.40000212E-3,2.6799998,,,,,-233.40000212E-3,2.6560001,
,,,-233.19999874E-3,2.72000003,,,,,-233.19999874E-3,2.6799998,,,,,-233.19999874E-3,2.6560001,
,,,-232.99999535E-3,2.72000003,,,,,-232.99999535E-3,2.6599998,,,,,-232.99999535E-3,2.6480002,
,,,-232.80000687E-3,2.72000003,,,,,-232.80000687E-3,2.6799998,,,,,-232.80000687E-3,2.6480002,
,,,-232.60000348E-3,2.72000003,,,,,-232.60000348E-3,2.6799998,,,,,-232.60000348E-3,2.6480002,
,,,-232.40000010E-3,2.72000003,,,,,-232.40000010E-3,2.6799998,,,,,-232.40000010E-3,2.6400001,
,,,-232.19999671E-3,2.72000003,,,,,-232.19999671E-3,2.6799998,,,,,-232.19999671E-3,2.6560001,
,,,-231.99999332E-3,2.72000003,,,,,-231.99999332E-3,2.6799998,,,,,-231.99999332E-3,2.6560001,
,,,-231.80000484E-3,2.72000003,,,,,-231.80000484E-3,2.6599998,,,,,-231.80000484E-3,2.6480002,
,,,-231.60000145E-3,2.72000003,,,,,-231.60000145E-3,2.6799998,,,,,-231.60000145E-3,2.6560001,
,,,-231.39999807E-3,2.72000003,,,,,-231.39999807E-3,2.6799998,,,,,-231.39999807E-3,2.6480002,
,,,-231.19999468E-3,2.72000003,,,,,-231.19999468E-3,2.6799998,,,,,-231.19999468E-3,2.6320002,
,,,-231.00000620E-3,2.72000003,,,,,-231.00000620E-3,2.6799998,,,,,-231.00000620E-3,2.6320002,
,,,-230.80000281E-3,2.72000003,,,,,-230.80000281E-3,2.6799998,,,,,-230.80000281E-3,2.6320002,
,,,-230.59999943E-3,2.72000003,,,,,-230.59999943E-3,2.6799998,,,,,-230.59999943E-3,2.6560001,
,,,-230.39999604E-3,2.72000003,,,,,-230.39999604E-3,2.6799998,,,,,-230.39999604E-3,2.6320002,
,,,-230.20000756E-3,2.72000003,,,,,-230.20000756E-3,2.6799998,,,,,-230.20000756E-3,2.6240001,
,,,-230.00000417E-3,2.72000003,,,,,-230.00000417E-3,2.7000000,,,,,-230.00000417E-3,2.6560001,
,,,-229.80000079E-3,2.72000003,,,,,-229.80000079E-3,2.7000000,,,,,-229.80000079E-3,2.6560001,
,,,-229.59999740E-3,2.72000003,,,,,-229.59999740E-3,2.6799998,,,,,-229.59999740E-3,2.6560001,
,,,-229.39999402E-3,2.72000003,,,,,-229.39999402E-3,2.6799998,,,,,-229.39999402E-3,2.6400001,
,,,-229.20000553E-3,2.72000003,,,,,-229.20000553E-3,2.6799998,,,,,-229.20000553E-3,2.6400001,
,,,-229.00000215E-3,2.72000003,,,,,-229.00000215E-3,2.6799998,,,,,-229.00000215E-3,2.6400001,
,,,-228.79999876E-3,2.72000003,,,,,-228.79999876E-3,2.6599998,,,,,-228.79999876E-3,2.6640000,
,,,-228.59999537E-3,2.72000003,,,,,-228.59999537E-3,2.6799998,,,,,-228.59999537E-3,2.6400001,
,,,-228.40000689E-3,2.72000003,,,,,-228.40000689E-3,2.6799998,,,,,-228.40000689E-3,2.6480002,
,,,-228.20000350E-3,2.72000003,,,,,-228.20000350E-3,2.6799998,,,,,-228.20000350E-3,2.6480002,
,,,-228.00000012E-3,2.72000003,,,,,-228.00000012E-3,2.6599998,,,,,-228.00000012E-3,2.6400001,
,,,-227.79999673E-3,2.72000003,,,,,-227.79999673E-3,2.6799998,,,,,-227.79999673E-3,2.6480002,
,,,-227.59999335E-3,2.72000003,,,,,-227.59999335E-3,2.6799998,,,,,-227.59999335E-3,2.6320002,
,,,-227.40000486E-3,2.72000003,,,,,-227.40000486E-3,2.6599998,,,,,-227.40000486E-3,2.6320002,
,,,-227.20000148E-3,2.72000003,,,,,-227.20000148E-3,2.6599998,,,,,-227.20000148E-3,2.6800001,
,,,-226.99999809E-3,2.72000003,,,,,-226.99999809E-3,2.6599998,,,,,-226.99999809E-3,2.6480002,
,,,-226.79999471E-3,2.72000003,,,,,-226.79999471E-3,2.6799998,,,,,-226.79999471E-3,2.6400001,
,,,-226.60000622E-3,2.72000003,,,,,-226.60000622E-3,2.6799998,,,,,-226.60000622E-3,2.6560001,
,,,-226.40000284E-3,2.72000003,,,,,-226.40000284E-3,2.6599998,,,,,-226.40000284E-3,2.6480002,
,,,-226.19999945E-3,2.72000003,,,,,-226.19999945E-3,2.6799998,,,,,-226.19999945E-3,2.6400001,
,,,-225.99999607E-3,2.72000003,,,,,-225.99999607E-3,2.6599998,,,,,-225.99999607E-3,2.6640000,
,,,-225.80000758E-3,2.72000003,,,,,-225.80000758E-3,2.6599998,,,,,-225.80000758E-3,2.6400001,
,,,-225.60000420E-3,2.72000003,,,,,-225.60000420E-3,2.6799998,,,,,-225.60000420E-3,2.6480002,
,,,-225.40000081E-3,2.72000003,,,,,-225.40000081E-3,2.6799998,,,,,-225.40000081E-3,2.6480002,
,,,-225.19999743E-3,2.72000003,,,,,-225.19999743E-3,2.6599998,,,,,-225.19999743E-3,2.6720002,
,,,-224.99999404E-3,2.72000003,,,,,-224.99999404E-3,2.6799998,,,,,-224.99999404E-3,2.6400001,
,,,-224.80000556E-3,2.72000003,,,,,-224.80000556E-3,2.6599998,,,,,-224.80000556E-3,2.6560001,
,,,-224.60000217E-3,2.72000003,,,,,-224.60000217E-3,2.7000000,,,,,-224.60000217E-3,2.6400001,
,,,-224.39999878E-3,2.72000003,,,,,-224.39999878E-3,2.6799998,,,,,-224.39999878E-3,2.6560001,
,,,-224.19999540E-3,2.72000003,,,,,-224.19999540E-3,2.6599998,,,,,-224.19999540E-3,2.6560001,
,,,-224.00000691E-3,2.72000003,,,,,-224.00000691E-3,2.6799998,,,,,-224.00000691E-3,2.6480002,
,,,-223.80000353E-3,2.72000003,,,,,-223.80000353E-3,2.6799998,,,,,-223.80000353E-3,2.6320002,
,,,-223.60000014E-3,2.72000003,,,,,-223.60000014E-3,2.6799998,,,,,-223.60000014E-3,2.6400001,
,,,-223.39999676E-3,2.72000003,,,,,-223.39999676E-3,2.7000000,,,,,-223.39999676E-3,2.6400001,
,,,-223.19999337E-3,2.72000003,,,,,-223.19999337E-3,2.6799998,,,,,-223.19999337E-3,2.6400001,
,,,-223.00000489E-3,2.72000003,,,,,-223.00000489E-3,2.7000000,,,,,-223.00000489E-3,2.6320002,
,,,-222.80000150E-3,2.72000003,,,,,-222.80000150E-3,2.6799998,,,,,-222.80000150E-3,2.6560001,
,,,-222.59999812E-3,2.72000003,,,,,-222.59999812E-3,2.6799998,,,,,-222.59999812E-3,2.6400001,
,,,-222.39999473E-3,2.72000003,,,,,-222.39999473E-3,2.6799998,,,,,-222.39999473E-3,2.6560001,
,,,-222.20000625E-3,2.72000003,,,,,-222.20000625E-3,2.6799998,,,,,-222.20000625E-3,2.6560001,
,,,-222.00000286E-3,2.72000003,,,,,-222.00000286E-3,2.6799998,,,,,-222.00000286E-3,2.6400001,
,,,-221.79999948E-3,2.72000003,,,,,-221.79999948E-3,2.6799998,,,,,-221.79999948E-3,2.6400001,
,,,-221.59999609E-3,2.72000003,,,,,-221.59999609E-3,2.6799998,,,,,-221.59999609E-3,2.6400001,
,,,-221.40000761E-3,2.72000003,,,,,-221.40000761E-3,2.6799998,,,,,-221.40000761E-3,2.6480002,
,,,-221.20000422E-3,2.72000003,,,,,-221.20000422E-3,2.6799998,,,,,-221.20000422E-3,2.6480002,
,,,-221.00000083E-3,2.72000003,,,,,-221.00000083E-3,2.6799998,,,,,-221.00000083E-3,2.6480002,
,,,-220.79999745E-3,2.72000003,,,,,-220.79999745E-3,2.6799998,,,,,-220.79999745E-3,2.6480002,
,,,-220.59999406E-3,2.72000003,,,,,-220.59999406E-3,2.6799998,,,,,-220.59999406E-3,2.6560001,
,,,-220.40000558E-3,2.72000003,,,,,-220.40000558E-3,2.6599998,,,,,-220.40000558E-3,2.6320002,
,,,-220.20000219E-3,2.72000003,,,,,-220.20000219E-3,2.6799998,,,,,-220.20000219E-3,2.6480002,
,,,-219.99999881E-3,2.72000003,,,,,-219.99999881E-3,2.6799998,,,,,-219.99999881E-3,2.6400001,
,,,-219.79999542E-3,2.72000003,,,,,-219.79999542E-3,2.6799998,,,,,-219.79999542E-3,2.6720002,
,,,-219.60000694E-3,2.72000003,,,,,-219.60000694E-3,2.6799998,,,,,-219.60000694E-3,2.6400001,
,,,-219.40000355E-3,2.72000003,,,,,-219.40000355E-3,2.6599998,,,,,-219.40000355E-3,2.6320002,
,,,-219.20000017E-3,2.72000003,,,,,-219.20000017E-3,2.6799998,,,,,-219.20000017E-3,2.6480002,
,,,-218.99999678E-3,2.72000003,,,,,-218.99999678E-3,2.6599998,,,,,-218.99999678E-3,2.6480002,
,,,-218.79999340E-3,2.72000003,,,,,-218.79999340E-3,2.6799998,,,,,-218.79999340E-3,2.6400001,
,,,-218.60000491E-3,2.72000003,,,,,-218.60000491E-3,2.6799998,,,,,-218.60000491E-3,2.6560001,
,,,-218.40000153E-3,2.72000003,,,,,-218.40000153E-3,2.7000000,,,,,-218.40000153E-3,2.6320002,
,,,-218.19999814E-3,2.72000003,,,,,-218.19999814E-3,2.6799998,,,,,-218.19999814E-3,2.6400001,
,,,-217.99999475E-3,2.72000003,,,,,-217.99999475E-3,2.6599998,,,,,-217.99999475E-3,2.6640000,
,,,-217.80000627E-3,2.72000003,,,,,-217.80000627E-3,2.6799998,,,,,-217.80000627E-3,2.6400001,
,,,-217.60000288E-3,2.72000003,,,,,-217.60000288E-3,2.6799998,,,,,-217.60000288E-3,2.6400001,
,,,-217.39999950E-3,2.72000003,,,,,-217.39999950E-3,2.6799998,,,,,-217.39999950E-3,2.6480002,
,,,-217.19999611E-3,2.72000003,,,,,-217.19999611E-3,2.6799998,,,,,-217.19999611E-3,2.6320002,
,,,-217.00000763E-3,2.72000003,,,,,-217.00000763E-3,2.6799998,,,,,-217.00000763E-3,2.6480002,
,,,-216.80000424E-3,2.72000003,,,,,-216.80000424E-3,2.6799998,,,,,-216.80000424E-3,2.6480002,
,,,-216.60000086E-3,2.72000003,,,,,-216.60000086E-3,2.6799998,,,,,-216.60000086E-3,2.6480002,
,,,-216.39999747E-3,2.72000003,,,,,-216.39999747E-3,2.6799998,,,,,-216.39999747E-3,2.6560001,
,,,-216.19999409E-3,2.72000003,,,,,-216.19999409E-3,2.6799998,,,,,-216.19999409E-3,2.6480002,
,,,-216.00000560E-3,2.72000003,,,,,-216.00000560E-3,2.6799998,,,,,-216.00000560E-3,2.6480002,
,,,-215.80000222E-3,2.72000003,,,,,-215.80000222E-3,2.6799998,,,,,-215.80000222E-3,2.6400001,
,,,-215.59999883E-3,2.72000003,,,,,-215.59999883E-3,2.6799998,,,,,-215.59999883E-3,2.6320002,
,,,-215.39999545E-3,2.72000003,,,,,-215.39999545E-3,2.6799998,,,,,-215.39999545E-3,2.6400001,
,,,-215.20000696E-3,2.72000003,,,,,-215.20000696E-3,2.6799998,,,,,-215.20000696E-3,2.6480002,
,,,-215.00000358E-3,2.72000003,,,,,-215.00000358E-3,2.6799998,,,,,-215.00000358E-3,2.6400001,
,,,-214.80000019E-3,2.72000003,,,,,-214.80000019E-3,2.6599998,,,,,-214.80000019E-3,2.6480002,
,,,-214.59999681E-3,2.72000003,,,,,-214.59999681E-3,2.6799998,,,,,-214.59999681E-3,2.6480002,
,,,-214.40000832E-3,2.72000003,,,,,-214.40000832E-3,2.6799998,,,,,-214.40000832E-3,2.6560001,
,,,-214.20000494E-3,2.72000003,,,,,-214.20000494E-3,2.6799998,,,,,-214.20000494E-3,2.6480002,
,,,-214.00000155E-3,2.72000003,,,,,-214.00000155E-3,2.6799998,,,,,-214.00000155E-3,2.6560001,
,,,-213.79999816E-3,2.72000003,,,,,-213.79999816E-3,2.6799998,,,,,-213.79999816E-3,2.6400001,
,,,-213.59999478E-3,2.72000003,,,,,-213.59999478E-3,2.6799998,,,,,-213.59999478E-3,2.6560001,
,,,-213.40000629E-3,2.72000003,,,,,-213.40000629E-3,2.6799998,,,,,-213.40000629E-3,2.6400001,
,,,-213.20000291E-3,2.72000003,,,,,-213.20000291E-3,2.6799998,,,,,-213.20000291E-3,2.6480002,
,,,-212.99999952E-3,2.72000003,,,,,-212.99999952E-3,2.6599998,,,,,-212.99999952E-3,2.6480002,
,,,-212.79999614E-3,2.72000003,,,,,-212.79999614E-3,2.6799998,,,,,-212.79999614E-3,2.6720002,
,,,-212.60000765E-3,2.72000003,,,,,-212.60000765E-3,2.6799998,,,,,-212.60000765E-3,2.6480002,
,,,-212.40000427E-3,2.72000003,,,,,-212.40000427E-3,2.6799998,,,,,-212.40000427E-3,2.6480002,
,,,-212.20000088E-3,2.72000003,,,,,-212.20000088E-3,2.6799998,,,,,-212.20000088E-3,2.6400001,
,,,-211.99999750E-3,2.72000003,,,,,-211.99999750E-3,2.6799998,,,,,-211.99999750E-3,2.6480002,
,,,-211.79999411E-3,2.72000003,,,,,-211.79999411E-3,2.7000000,,,,,-211.79999411E-3,2.6400001,
,,,-211.60000563E-3,2.72000003,,,,,-211.60000563E-3,2.6799998,,,,,-211.60000563E-3,2.6320002,
,,,-211.40000224E-3,2.72000003,,,,,-211.40000224E-3,2.6799998,,,,,-211.40000224E-3,2.6560001,
,,,-211.19999886E-3,2.72000003,,,,,-211.19999886E-3,2.6799998,,,,,-211.19999886E-3,2.6560001,
,,,-210.99999547E-3,2.72000003,,,,,-210.99999547E-3,2.6599998,,,,,-210.99999547E-3,2.6400001,
,,,-210.80000699E-3,2.72000003,,,,,-210.80000699E-3,2.7000000,,,,,-210.80000699E-3,2.6480002,
,,,-210.60000360E-3,2.72000003,,,,,-210.60000360E-3,2.6799998,,,,,-210.60000360E-3,2.6640000,
,,,-210.40000021E-3,2.72000003,,,,,-210.40000021E-3,2.6799998,,,,,-210.40000021E-3,2.6400001,
,,,-210.19999683E-3,2.72000003,,,,,-210.19999683E-3,2.6799998,,,,,-210.19999683E-3,2.6480002,
,,,-210.00000834E-3,2.72000003,,,,,-210.00000834E-3,2.6799998,,,,,-210.00000834E-3,2.6400001,
,,,-209.80000496E-3,2.72000003,,,,,-209.80000496E-3,2.6799998,,,,,-209.80000496E-3,2.6400001,
,,,-209.60000157E-3,2.72000003,,,,,-209.60000157E-3,2.6799998,,,,,-209.60000157E-3,2.6560001,
