Lab5/exp/MedicionesErroneas/Exp1_segundoIntento.csv

Record Length,2500,Points,0.0,1.2800000,,Record Length,2500,Points,0.0,3.57999992,,Record Length,2500,Points,0.0,1.2800000,,Record Length,2500,Points,0.0,2.5200000,
Sample Interval,399.99998990E-6,s,399.99998990E-6,1.2800000,,Sample Interval,399.99998990E-6,s,399.99998990E-6,3.57999992,,Sample Interval,399.99998990E-6,s,399.99998990E-6,1.2800000,,Sample Interval,399.99998990E-6,s,399.99998990E-6,2.5200000,
Trigger Point,0.0,Samples,799.999979790E-6,1.2800000,,Trigger Point,0.0,Samples,799.999979790E-6,3.57999992,,Trigger Point,0.0,Samples,799.999979790E-6,1.3000000,,Trigger Point,0.0,Samples,799.999979790E-6,2.5200000,
,,,1.1999999E-3,1.2800000,,,,,1.1999999E-3,3.55999994,,,,,1.1999999E-3,1.2400000,,,,,1.1999999E-3,2.5200000,
,,,1.6000000E-3,1.2600000,,,,,1.6000000E-3,3.57999992,,,,,1.6000000E-3,1.2800000,,,,,1.6000000E-3,2.5200000,
,,,1.9999999E-3,1.2800000,,,,,1.9999999E-3,3.55999994,,,,,1.9999999E-3,1.3199999,,,,,1.9999999E-3,2.5200000,
Source,CH1,,2.3999999E-3,1.2600000,,Source,CH2,,2.3999999E-3,3.57999992,,Source,CH3,,2.3999999E-3,1.2600000,,Source,CH4,,2.3999999E-3,2.5200000,
Vertical Units,Volts,,2.79999990E-3,1.2800000,,Vertical Units,Volts,,2.79999990E-3,3.59999990,,Vertical Units,Volts,,2.79999990E-3,1.3000000,,Vertical Units,Volts,,2.79999990E-3,2.5200000,
Vertical Scale,499.999988824E-3,,3.19999992E-3,1.2800000,,Vertical Scale,499.999988824E-3,,3.19999992E-3,3.55999994,,Vertical Scale,499.999988824E-3,,3.19999992E-3,1.3399999,,Vertical Scale,999.999977648E-3,,3.19999992E-3,2.5200000,
Vertical Offset,0,,3.59999994E-3,1.2800000,,Vertical Offset,0,,3.59999994E-3,3.57999992,,Vertical Offset,0,,3.59999994E-3,1.2800000,,Vertical Offset,0,,3.59999994E-3,2.5200000,
Horizontal Units,s,,3.99999972E-3,1.2600000,,Horizontal Units,s,,3.99999972E-3,3.57999992,,Horizontal Units,s,,3.99999972E-3,1.3000000,,Horizontal Units,s,,3.99999972E-3,2.5200000,
Horizontal Scale,99.999997474E-3,,4.39999998E-3,1.2800000,,Horizontal Scale,99.999997474E-3,,4.39999998E-3,3.57999992,,Horizontal Scale,99.999997474E-3,,4.39999998E-3,1.3000000,,Horizontal Scale,99.999997474E-3,,4.39999998E-3,2.5200000,
Pt Fmt,Y,,4.79999976E-3,1.2800000,,Pt Fmt,Y,,4.79999976E-3,3.57999992,,Pt Fmt,Y,,4.79999976E-3,1.2400000,,Pt Fmt,Y,,4.79999976E-3,2.5200000,
Yzero,-4.84000000,,5.20000001E-3,1.2800000,,Yzero,-8.320000000,,5.20000001E-3,3.59999990,,Yzero,-760.000000000E-3,,5.20000001E-3,1.3000000,,Yzero,1.2800000,,5.20000001E-3,2.5200000,
Probe Atten,1.000000,,5.59999980E-3,1.2800000,,Probe Atten,1.000000,,5.59999980E-3,3.55999994,,Probe Atten,1.000000,,5.59999980E-3,1.2600000,,Probe Atten,1.000000,,5.59999980E-3,2.5200000,
,,,6.00000005E-3,1.2800000,,,,,6.00000005E-3,3.57999992,,,,,6.00000005E-3,1.2800000,,,,,6.00000005E-3,2.5200000,
Note,TDS 2004B - 20:44:39   20/10/2025,,6.39999984E-3,1.2800000,,Note,TDS 2004B - 20:44:39   20/10/2025,,6.39999984E-3,3.59999990,,Note,TDS 2004B - 20:44:39   20/10/2025,,6.39999984E-3,1.3000000,,Note,TDS 2004B - 20:44:39   20/10/2025,,6.39999984E-3,2.5200000,
,,,6.79999962E-3,1.2800000,,,,,6.79999962E-3,3.55999994,,,,,6.79999962E-3,1.2400000,,,,,6.79999962E-3,2.5200000,
,,,7.19999988E-3,1.2600000,,,,,7.19999988E-3,3.55999994,,,,,7.19999988E-3,1.3000000,,,,,7.19999988E-3,2.5200000,
,,,7.599999662E-3,1.2600000,,,,,7.599999662E-3,3.57999992,,,,,7.599999662E-3,1.3000000,,,,,7.599999662E-3,2.5200000,
,,,7.999999449E-3,1.2800000,,,,,7.999999449E-3,3.57999992,,,,,7.999999449E-3,1.2800000,,,,,7.999999449E-3,2.5200000,
,,,8.399999700E-3,1.2800000,,,,,8.399999700E-3,3.55999994,,,,,8.399999700E-3,1.3199999,,,,,8.399999700E-3,2.5200000,
,,,8.799999952E-3,1.2800000,,,,,8.799999952E-3,3.57999992,,,,,8.799999952E-3,1.3000000,,,,,8.799999952E-3,2.5200000,
,,,9.200000204E-3,1.2600000,,,,,9.200000204E-3,3.57999992,,,,,9.200000204E-3,1.2600000,,,,,9.200000204E-3,2.5200000,
,,,9.599999525E-3,1.2600000,,,,,9.599999525E-3,3.57999992,,,,,9.599999525E-3,1.3000000,,,,,9.599999525E-3,2.5200000,
,,,9.999999776E-3,1.2800000,,,,,9.999999776E-3,3.57999992,,,,,9.999999776E-3,1.3000000,,,,,9.999999776E-3,2.5200000,
,,,10.4000000E-3,1.2800000,,,,,10.4000000E-3,3.57999992,,,,,10.4000000E-3,1.2600000,,,,,10.4000000E-3,2.5200000,
,,,10.7999993E-3,1.2600000,,,,,10.7999993E-3,3.57999992,,,,,10.7999993E-3,1.2800000,,,,,10.7999993E-3,2.5200000,
,,,11.1999996E-3,1.2800000,,,,,11.1999996E-3,3.55999994,,,,,11.1999996E-3,1.3199999,,,,,11.1999996E-3,2.5200000,
,,,11.5999999E-3,1.2800000,,,,,11.5999999E-3,3.57999992,,,,,11.5999999E-3,1.2600000,,,,,11.5999999E-3,2.5200000,
,,,12.0000001E-3,1.2600000,,,,,12.0000001E-3,3.57999992,,,,,12.0000001E-3,1.2800000,,,,,12.0000001E-3,2.5200000,
,,,12.3999994E-3,1.2800000,,,,,12.3999994E-3,3.57999992,,,,,12.3999994E-3,1.3000000,,,,,12.3999994E-3,2.5200000,
,,,12.7999997E-3,1.2800000,,,,,12.7999997E-3,3.57999992,,,,,12.7999997E-3,1.2600000,,,,,12.7999997E-3,2.5200000,
,,,13.1999999E-3,1.2800000,,,,,13.1999999E-3,3.57999992,,,,,13.1999999E-3,1.2800000,,,,,13.1999999E-3,2.5200000,
,,,13.5999992E-3,1.2800000,,,,,13.5999992E-3,3.57999992,,,,,13.5999992E-3,1.3000000,,,,,13.5999992E-3,2.5200000,
,,,13.9999995E-3,1.2600000,,,,,13.9999995E-3,3.55999994,,,,,13.9999995E-3,1.2200000,,,,,13.9999995E-3,2.5200000,
,,,14.3999998E-3,1.2800000,,,,,14.3999998E-3,3.55999994,,,,,14.3999998E-3,1.2800000,,,,,14.3999998E-3,2.5200000,
,,,14.8000000E-3,1.2800000,,,,,14.8000000E-3,3.55999994,,,,,14.8000000E-3,1.2600000,,,,,14.8000000E-3,2.5200000,
,,,15.1999993E-3,1.2800000,,,,,15.1999993E-3,3.57999992,,,,,15.1999993E-3,1.3000000,,,,,15.1999993E-3,2.5200000,
,,,15.5999996E-3,1.2400000,,,,,15.5999996E-3,3.55999994,,,,,15.5999996E-3,1.3000000,,,,,15.5999996E-3,2.5200000,
,,,15.9999989E-3,1.2800000,,,,,15.9999989E-3,3.55999994,,,,,15.9999989E-3,1.2800000,,,,,15.9999989E-3,2.5200000,
,,,16.4000001E-3,1.2600000,,,,,16.4000001E-3,3.55999994,,,,,16.4000001E-3,1.2600000,,,,,16.4000001E-3,2.5200000,
,,,16.7999994E-3,1.2600000,,,,,16.7999994E-3,3.57999992,,,,,16.7999994E-3,1.2800000,,,,,16.7999994E-3,2.5200000,
,,,17.1999987E-3,1.2800000,,,,,17.1999987E-3,3.57999992,,,,,17.1999987E-3,1.3000000,,,,,17.1999987E-3,2.5200000,
,,,17.5999999E-3,1.2600000,,,,,17.5999999E-3,3.55999994,,,,,17.5999999E-3,1.2800000,,,,,17.5999999E-3,2.5200000,
,,,17.9999992E-3,1.2800000,,,,,17.9999992E-3,3.57999992,,,,,17.9999992E-3,1.3000000,,,,,17.9999992E-3,2.5200000,
,,,18.4000004E-3,1.2600000,,,,,18.4000004E-3,3.55999994,,,,,18.4000004E-3,1.3000000,,,,,18.4000004E-3,2.5200000,
,,,18.7999997E-3,1.2800000,,,,,18.7999997E-3,3.57999992,,,,,18.7999997E-3,1.2400000,,,,,18.7999997E-3,2.5200000,
,,,19.1999990E-3,1.2800000,,,,,19.1999990E-3,3.55999994,,,,,19.1999990E-3,1.3199999,,,,,19.1999990E-3,2.5200000,
,,,19.6000002E-3,1.2800000,,,,,19.6000002E-3,3.55999994,,,,,19.6000002E-3,1.3000000,,,,,19.6000002E-3,2.5200000,
,,,19.9999996E-3,1.2800000,,,,,19.9999996E-3,3.57999992,,,,,19.9999996E-3,1.2400000,,,,,19.9999996E-3,2.5200000,
,,,20.39999887E-3,1.2800000,,,,,20.39999887E-3,3.55999994,,,,,20.39999887E-3,1.3000000,,,,,20.39999887E-3,2.5200000,
,,,20.80000006E-3,1.2600000,,,,,20.80000006E-3,3.57999992,,,,,20.80000006E-3,1.3000000,,,,,20.80000006E-3,2.5200000,
,,,21.19999938E-3,1.2800000,,,,,21.19999938E-3,3.55999994,,,,,21.19999938E-3,1.2600000,,,,,21.19999938E-3,2.5200000,
,,,21.59999870E-3,1.2800000,,,,,21.59999870E-3,3.55999994,,,,,21.59999870E-3,1.3199999,,,,,21.59999870E-3,2.5200000,
,,,21.99999988E-3,1.2800000,,,,,21.99999988E-3,3.57999992,,,,,21.99999988E-3,1.2600000,,,,,21.99999988E-3,2.5200000,
,,,22.39999920E-3,1.2800000,,,,,22.39999920E-3,3.55999994,,,,,22.39999920E-3,1.3000000,,,,,22.39999920E-3,2.5200000,
,,,22.79999852E-3,1.2800000,,,,,22.79999852E-3,3.57999992,,,,,22.79999852E-3,1.2800000,,,,,22.79999852E-3,2.5200000,
,,,23.19999970E-3,1.2800000,,,,,23.19999970E-3,3.57999992,,,,,23.19999970E-3,1.3000000,,,,,23.19999970E-3,2.5200000,
,,,23.59999903E-3,1.2800000,,,,,23.59999903E-3,3.57999992,,,,,23.59999903E-3,1.3000000,,,,,23.59999903E-3,2.5200000,
,,,24.00000021E-3,1.2600000,,,,,24.00000021E-3,3.57999992,,,,,24.00000021E-3,1.2600000,,,,,24.00000021E-3,2.5200000,
,,,24.39999953E-3,1.2600000,,,,,24.39999953E-3,3.57999992,,,,,24.39999953E-3,1.3000000,,,,,24.39999953E-3,2.5200000,
,,,24.79999885E-3,1.2800000,,,,,24.79999885E-3,3.57999992,,,,,24.79999885E-3,1.3000000,,,,,24.79999885E-3,2.5200000,
,,,25.20000003E-3,1.2800000,,,,,25.20000003E-3,3.57999992,,,,,25.20000003E-3,1.2600000,,,,,25.20000003E-3,2.5200000,
,,,25.59999935E-3,1.2800000,,,,,25.59999935E-3,3.57999992,,,,,25.59999935E-3,1.3000000,,,,,25.59999935E-3,2.5200000,
,,,25.99999867E-3,1.2800000,,,,,25.99999867E-3,3.57999992,,,,,25.99999867E-3,1.2400000,,,,,25.99999867E-3,2.5200000,
,,,26.39999986E-3,1.2800000,,,,,26.39999986E-3,3.57999992,,,,,26.39999986E-3,1.3000000,,,,,26.39999986E-3,2.5200000,
,,,26.79999918E-3,1.2600000,,,,,26.79999918E-3,3.57999992,,,,,26.79999918E-3,1.3000000,,,,,26.79999918E-3,2.5200000,
,,,27.19999850E-3,1.2600000,,,,,27.19999850E-3,3.57999992,,,,,27.19999850E-3,1.3000000,,,,,27.19999850E-3,2.5200000,
,,,27.59999968E-3,1.2800000,,,,,27.59999968E-3,3.57999992,,,,,27.59999968E-3,1.3000000,,,,,27.59999968E-3,2.5200000,
,,,27.99999900E-3,1.2600000,,,,,27.99999900E-3,3.57999992,,,,,27.99999900E-3,1.3199999,,,,,27.99999900E-3,2.5200000,
,,,28.40000018E-3,1.2800000,,,,,28.40000018E-3,3.57999992,,,,,28.40000018E-3,1.2200000,,,,,28.40000018E-3,2.5599999,
,,,28.79999951E-3,1.2600000,,,,,28.79999951E-3,3.55999994,,,,,28.79999951E-3,1.2800000,,,,,28.79999951E-3,2.5200000,
,,,29.19999883E-3,1.2800000,,,,,29.19999883E-3,3.57999992,,,,,29.19999883E-3,1.3199999,,,,,29.19999883E-3,2.5200000,
,,,29.60000001E-3,1.2800000,,,,,29.60000001E-3,3.55999994,,,,,29.60000001E-3,1.2800000,,,,,29.60000001E-3,2.5200000,
,,,29.99999933E-3,1.2800000,,,,,29.99999933E-3,3.57999992,,,,,29.99999933E-3,1.2600000,,,,,29.99999933E-3,2.5200000,
,,,30.39999865E-3,1.2600000,,,,,30.39999865E-3,3.57999992,,,,,30.39999865E-3,1.3000000,,,,,30.39999865E-3,2.5200000,
,,,30.79999983E-3,1.3000000,,,,,30.79999983E-3,3.57999992,,,,,30.79999983E-3,1.3000000,,,,,30.79999983E-3,2.5200000,
,,,31.19999915E-3,1.3000000,,,,,31.19999915E-3,3.55999994,,,,,31.19999915E-3,1.3000000,,,,,31.19999915E-3,2.5200000,
,,,31.59999847E-3,1.2800000,,,,,31.59999847E-3,3.55999994,,,,,31.59999847E-3,1.2800000,,,,,31.59999847E-3,2.5200000,
,,,31.99999779E-3,1.2800000,,,,,31.99999779E-3,3.55999994,,,,,31.99999779E-3,1.2800000,,,,,31.99999779E-3,2.5200000,
,,,32.40000084E-3,1.2800000,,,,,32.40000084E-3,3.57999992,,,,,32.40000084E-3,1.2600000,,,,,32.40000084E-3,2.5200000,
,,,32.80000016E-3,1.2800000,,,,,32.80000016E-3,3.57999992,,,,,32.80000016E-3,1.3000000,,,,,32.80000016E-3,2.5200000,
,,,33.19999948E-3,1.2800000,,,,,33.19999948E-3,3.57999992,,,,,33.19999948E-3,1.3000000,,,,,33.19999948E-3,2.5200000,
,,,33.59999880E-3,719.999969006E-3,,,,,33.59999880E-3,3.57999992,,,,,33.59999880E-3,1.2600000,,,,,33.59999880E-3,2.5200000,
,,,33.99999812E-3,719.999969006E-3,,,,,33.99999812E-3,3.57999992,,,,,33.99999812E-3,1.3000000,,,,,33.99999812E-3,2.5200000,
,,,34.39999744E-3,740.000009537E-3,,,,,34.39999744E-3,3.59999990,,,,,34.39999744E-3,1.3000000,,,,,34.39999744E-3,2.5200000,
,,,34.80000049E-3,759.999990463E-3,,,,,34.80000049E-3,3.61999989,,,,,34.80000049E-3,1.2400000,,,,,34.80000049E-3,2.5200000,
,,,35.19999981E-3,759.999990463E-3,,,,,35.19999981E-3,3.61999989,,,,,35.19999981E-3,1.3199999,,,,,35.19999981E-3,2.5200000,
,,,35.59999913E-3,759.999990463E-3,,,,,35.59999913E-3,3.63999987,,,,,35.59999913E-3,1.2600000,,,,,35.59999913E-3,1.5599999,
,,,35.99999845E-3,740.000009537E-3,,,,,35.99999845E-3,3.65999985,,,,,35.99999845E-3,1.3000000,,,,,35.99999845E-3,1.5599999,
,,,36.39999777E-3,740.000009537E-3,,,,,36.39999777E-3,3.65999985,,,,,36.39999777E-3,1.2600000,,,,,36.39999777E-3,1.5200000,
,,,36.80000082E-3,740.000009537E-3,,,,,36.80000082E-3,3.65999985,,,,,36.80000082E-3,1.2600000,,,,,36.80000082E-3,1.5599999,
,,,37.20000014E-3,719.999969006E-3,,,,,37.20000014E-3,3.67999983,,,,,37.20000014E-3,1.3000000,,,,,37.20000014E-3,1.5599999,
,,,37.59999946E-3,740.000009537E-3,,,,,37.59999946E-3,3.69999981,,,,,37.59999946E-3,1.2600000,,,,,37.59999946E-3,1.5599999,
,,,37.99999878E-3,740.000009537E-3,,,,,37.99999878E-3,3.69999981,,,,,37.99999878E-3,1.3000000,,,,,37.99999878E-3,1.5599999,
,,,38.39999810E-3,740.000009537E-3,,,,,38.39999810E-3,3.74000001,,,,,38.39999810E-3,1.2200000,,,,,38.39999810E-3,1.5599999,
,,,38.79999742E-3,759.999990463E-3,,,,,38.79999742E-3,3.72000003,,,,,38.79999742E-3,1.2600000,,,,,38.79999742E-3,1.5599999,
,,,39.20000046E-3,759.999990463E-3,,,,,39.20000046E-3,3.74000001,,,,,39.20000046E-3,1.2600000,,,,,39.20000046E-3,1.5599999,
,,,39.59999979E-3,759.999990463E-3,,,,,39.59999979E-3,3.75999999,,,,,39.59999979E-3,1.2200000,,,,,39.59999979E-3,1.5200000,
,,,39.99999911E-3,759.999990463E-3,,,,,39.99999911E-3,3.75999999,,,,,39.99999911E-3,1.2400000,,,,,39.99999911E-3,1.5599999,
,,,40.39999843E-3,759.999990463E-3,,,,,40.39999843E-3,3.75999999,,,,,40.39999843E-3,1.1600000,,,,,40.39999843E-3,1.5599999,
,,,40.79999775E-3,759.999990463E-3,,,,,40.79999775E-3,3.75999999,,,,,40.79999775E-3,1.2200000,,,,,40.79999775E-3,1.5200000,
,,,41.20000079E-3,759.999990463E-3,,,,,41.20000079E-3,3.77999997,,,,,41.20000079E-3,1.2200000,,,,,41.20000079E-3,1.5599999,
,,,41.60000011E-3,759.999990463E-3,,,,,41.60000011E-3,3.79999995,,,,,41.60000011E-3,1.1799999,,,,,41.60000011E-3,1.5599999,
,,,41.99999943E-3,759.999990463E-3,,,,,41.99999943E-3,3.79999995,,,,,41.99999943E-3,1.1999999,,,,,41.99999943E-3,1.5599999,
,,,42.39999875E-3,759.999990463E-3,,,,,42.39999875E-3,3.81999993,,,,,42.39999875E-3,1.1799999,,,,,42.39999875E-3,1.5599999,
,,,42.79999807E-3,779.999971390E-3,,,,,42.79999807E-3,3.79999995,,,,,42.79999807E-3,1.1400000,,,,,42.79999807E-3,1.5599999,
,,,43.19999740E-3,779.999971390E-3,,,,,43.19999740E-3,3.81999993,,,,,43.19999740E-3,1.1799999,,,,,43.19999740E-3,1.5599999,
,,,43.60000044E-3,799.999952316E-3,,,,,43.60000044E-3,3.81999993,,,,,43.60000044E-3,1.1600000,,,,,43.60000044E-3,1.5599999,
,,,43.99999976E-3,779.999971390E-3,,,,,43.99999976E-3,3.81999993,,,,,43.99999976E-3,1.1200000,,,,,43.99999976E-3,1.5599999,
,,,44.39999908E-3,779.999971390E-3,,,,,44.39999908E-3,3.83999991,,,,,44.39999908E-3,1.1200000,,,,,44.39999908E-3,1.5599999,
,,,44.79999840E-3,799.999952316E-3,,,,,44.79999840E-3,3.83999991,,,,,44.79999840E-3,1.1400000,,,,,44.79999840E-3,1.5599999,
,,,45.19999772E-3,799.999952316E-3,,,,,45.19999772E-3,3.83999991,,,,,45.19999772E-3,1.0799999,,,,,45.19999772E-3,1.5599999,
,,,45.59999704E-3,799.999952316E-3,,,,,45.59999704E-3,3.83999991,,,,,45.59999704E-3,1.1000000,,,,,45.59999704E-3,1.5200000,
,,,46.00000009E-3,819.999992847E-3,,,,,46.00000009E-3,3.83999991,,,,,46.00000009E-3,1.1200000,,,,,46.00000009E-3,1.5599999,
,,,46.39999941E-3,819.999992847E-3,,,,,46.39999941E-3,3.85999990,,,,,46.39999941E-3,1.0599999,,,,,46.39999941E-3,1.5599999,
,,,46.79999873E-3,819.999992847E-3,,,,,46.79999873E-3,3.85999990,,,,,46.79999873E-3,1.0799999,,,,,46.79999873E-3,1.5599999,
,,,47.19999805E-3,819.999992847E-3,,,,,47.19999805E-3,3.85999990,,,,,47.19999805E-3,1.1200000,,,,,47.19999805E-3,1.5599999,
,,,47.59999737E-3,819.999992847E-3,,,,,47.59999737E-3,3.87999988,,,,,47.59999737E-3,1.0400000,,,,,47.59999737E-3,1.5599999,
,,,48.00000042E-3,799.999952316E-3,,,,,48.00000042E-3,3.85999990,,,,,48.00000042E-3,1.0400000,,,,,48.00000042E-3,1.5599999,
,,,48.39999974E-3,819.999992847E-3,,,,,48.39999974E-3,3.85999990,,,,,48.39999974E-3,1.0599999,,,,,48.39999974E-3,1.5599999,
,,,48.79999906E-3,819.999992847E-3,,,,,48.79999906E-3,3.87999988,,,,,48.79999906E-3,1.000000,,,,,48.79999906E-3,1.5599999,
,,,49.19999838E-3,819.999992847E-3,,,,,49.19999838E-3,3.87999988,,,,,49.19999838E-3,1.0400000,,,,,49.19999838E-3,1.5599999,
,,,49.59999770E-3,839.999973774E-3,,,,,49.59999770E-3,3.89999986,,,,,49.59999770E-3,1.0599999,,,,,49.59999770E-3,1.5599999,
,,,49.99999702E-3,839.999973774E-3,,,,,49.99999702E-3,3.87999988,,,,,49.99999702E-3,1.000000,,,,,49.99999702E-3,1.5599999,
,,,50.40000007E-3,819.999992847E-3,,,,,50.40000007E-3,3.87999988,,,,,50.40000007E-3,1.000000,,,,,50.40000007E-3,1.5599999,
,,,50.79999939E-3,799.999952316E-3,,,,,50.79999939E-3,3.87999988,,,,,50.79999939E-3,1.0200000,,,,,50.79999939E-3,1.5599999,
,,,51.19999871E-3,799.999952316E-3,,,,,51.19999871E-3,3.87999988,,,,,51.19999871E-3,1.000000,,,,,51.19999871E-3,1.5599999,
,,,51.59999803E-3,819.999992847E-3,,,,,51.59999803E-3,3.89999986,,,,,51.59999803E-3,1.0200000,,,,,51.59999803E-3,1.5599999,
,,,51.99999735E-3,819.999992847E-3,,,,,51.99999735E-3,3.89999986,,,,,51.99999735E-3,1.0200000,,,,,51.99999735E-3,1.5599999,
,,,52.40000039E-3,819.999992847E-3,,,,,52.40000039E-3,3.87999988,,,,,52.40000039E-3,959.999978542E-3,,,,,52.40000039E-3,1.5599999,
,,,52.79999971E-3,839.999973774E-3,,,,,52.79999971E-3,3.91999984,,,,,52.79999971E-3,1.000000,,,,,52.79999971E-3,1.5599999,
,,,53.19999903E-3,839.999973774E-3,,,,,53.19999903E-3,3.91999984,,,,,53.19999903E-3,1.000000,,,,,53.19999903E-3,1.5599999,
,,,53.59999835E-3,839.999973774E-3,,,,,53.59999835E-3,3.91999984,,,,,53.59999835E-3,959.999978542E-3,,,,,53.59999835E-3,1.5599999,
,,,53.99999768E-3,819.999992847E-3,,,,,53.99999768E-3,3.91999984,,,,,53.99999768E-3,959.999978542E-3,,,,,53.99999768E-3,1.5599999,
,,,54.39999700E-3,839.999973774E-3,,,,,54.39999700E-3,3.91999984,,,,,54.39999700E-3,979.999959469E-3,,,,,54.39999700E-3,1.5599999,
,,,54.800000042E-3,839.999973774E-3,,,,,54.800000042E-3,3.91999984,,,,,54.800000042E-3,939.999997616E-3,,,,,54.800000042E-3,1.5599999,
,,,55.199999362E-3,839.999973774E-3,,,,,55.199999362E-3,3.93999982,,,,,55.199999362E-3,1.0200000,,,,,55.199999362E-3,1.5599999,
,,,55.599998683E-3,839.999973774E-3,,,,,55.599998683E-3,3.91999984,,,,,55.599998683E-3,1.000000,,,,,55.599998683E-3,1.5599999,
,,,55.999998003E-3,839.999973774E-3,,,,,55.999998003E-3,3.91999984,,,,,55.999998003E-3,939.999997616E-3,,,,,55.999998003E-3,1.5599999,
,,,56.399997324E-3,839.999973774E-3,,,,,56.399997324E-3,3.93999982,,,,,56.399997324E-3,959.999978542E-3,,,,,56.399997324E-3,1.5599999,
,,,56.800000370E-3,839.999973774E-3,,,,,56.800000370E-3,3.93999982,,,,,56.800000370E-3,939.999997616E-3,,,,,56.800000370E-3,1.5599999,
,,,57.199999690E-3,859.999954700E-3,,,,,57.199999690E-3,3.93999982,,,,,57.199999690E-3,939.999997616E-3,,,,,57.199999690E-3,1.5599999,
,,,57.599999011E-3,839.999973774E-3,,,,,57.599999011E-3,3.93999982,,,,,57.599999011E-3,959.999978542E-3,,,,,57.599999011E-3,1.5599999,
,,,57.999998331E-3,839.999973774E-3,,,,,57.999998331E-3,3.93999982,,,,,57.999998331E-3,939.999997616E-3,,,,,57.999998331E-3,1.5599999,
,,,58.399997652E-3,839.999973774E-3,,,,,58.399997652E-3,3.91999984,,,,,58.399997652E-3,979.999959469E-3,,,,,58.399997652E-3,1.5599999,
,,,58.799996972E-3,859.999954700E-3,,,,,58.799996972E-3,3.93999982,,,,,58.799996972E-3,899.999976158E-3,,,,,58.799996972E-3,1.5599999,
,,,59.200000018E-3,859.999954700E-3,,,,,59.200000018E-3,3.95999980,,,,,59.200000018E-3,1.000000,,,,,59.200000018E-3,1.5599999,
,,,59.599999338E-3,879.999995232E-3,,,,,59.599999338E-3,3.91999984,,,,,59.599999338E-3,959.999978542E-3,,,,,59.599999338E-3,1.5599999,
,,,59.999998659E-3,839.999973774E-3,,,,,59.999998659E-3,3.95999980,,,,,59.999998659E-3,939.999997616E-3,,,,,59.999998659E-3,1.5599999,
,,,60.399997979E-3,859.999954700E-3,,,,,60.399997979E-3,3.95999980,,,,,60.399997979E-3,959.999978542E-3,,,,,60.399997979E-3,1.5599999,
,,,60.799997300E-3,859.999954700E-3,,,,,60.799997300E-3,3.95999980,,,,,60.799997300E-3,939.999997616E-3,,,,,60.799997300E-3,1.5599999,
,,,61.199996620E-3,839.999973774E-3,,,,,61.199996620E-3,3.95999980,,,,,61.199996620E-3,919.999957085E-3,,,,,61.199996620E-3,1.5599999,
,,,61.599999666E-3,839.999973774E-3,,,,,61.599999666E-3,3.93999982,,,,,61.599999666E-3,959.999978542E-3,,,,,61.599999666E-3,1.5599999,
,,,61.999998987E-3,839.999973774E-3,,,,,61.999998987E-3,3.95999980,,,,,61.999998987E-3,919.999957085E-3,,,,,61.999998987E-3,1.5599999,
