MatLab_Projects/Lab2/tab.csv

Record Length,2500,Points,-6.00000005E-3,1.2640001,,Record Length,2500,Points,-6.00000005E-3,1.2600001,,Record Length,2500,Points,-6.00000005E-3,200.00000298E-3,
Sample Interval,19.9999995E-6,s,-5.97999990E-3,1.2480000,,Sample Interval,19.9999995E-6,s,-5.97999990E-3,1.2560000,,Sample Interval,19.9999995E-6,s,-5.97999990E-3,200.00000298E-3,
Trigger Point,300.00001019,Samples,-5.96000021E-3,1.2560000,,Trigger Point,300.00001019,Samples,-5.96000021E-3,1.2480000,,Trigger Point,300.00001019,Samples,-5.96000021E-3,200.00000298E-3,
,,,-5.94000006E-3,1.2560000,,,,,-5.94000006E-3,1.2520001,,,,,-5.94000006E-3,200.00000298E-3,
,,,-5.91999991E-3,1.2560000,,,,,-5.91999991E-3,1.2520001,,,,,-5.91999991E-3,200.00000298E-3,
,,,-5.90000022E-3,1.2480000,,,,,-5.90000022E-3,1.2520001,,,,,-5.90000022E-3,200.00000298E-3,
Source,CH1,,-5.88000007E-3,1.2480000,,Source,CH3,,-5.88000007E-3,1.2680000,,Source,CH4,,-5.88000007E-3,200.00000298E-3,
Vertical Units,Volts,,-5.85999992E-3,1.2560000,,Vertical Units,Volts,,-5.85999992E-3,1.2640001,,Vertical Units,Volts,,-5.85999992E-3,400.00000596E-3,
Vertical Scale,200.00000950E-3,,-5.84000023E-3,1.2560000,,Vertical Scale,100.0000047E-3,,-5.84000023E-3,1.2480000,,Vertical Scale,5.00000007,,-5.84000023E-3,200.00000298E-3,
Vertical Offset,0,,-5.82000008E-3,1.2480000,,Vertical Offset,0,,-5.82000008E-3,1.2480000,,Vertical Offset,0,,-5.82000008E-3,200.00000298E-3,
Horizontal Units,s,,-5.79999993E-3,1.2560000,,Horizontal Units,s,,-5.79999993E-3,1.2560000,,Horizontal Units,s,,-5.79999993E-3,200.00000298E-3,
Horizontal Scale,4.99999987E-3,,-5.78000024E-3,1.2480000,,Horizontal Scale,4.99999987E-3,,-5.78000024E-3,1.2400000,,Horizontal Scale,4.99999987E-3,,-5.78000024E-3,400.00000596E-3,
Pt Fmt,Y,,-5.76000009E-3,1.2560000,,Pt Fmt,Y,,-5.76000009E-3,1.2480000,,Pt Fmt,Y,,-5.76000009E-3,200.00000298E-3,
Yzero,-8.800000000,,-5.73999994E-3,1.2560000,,Yzero,-11.7200000,,-5.73999994E-3,1.2600001,,Yzero,-3.80000000,,-5.73999994E-3,400.00000596E-3,
Probe Atten,1.000000,,-5.72000025E-3,1.2480000,,Probe Atten,1.000000,,-5.72000025E-3,1.2560000,,Probe Atten,1.000000,,-5.72000025E-3,200.00000298E-3,
,,,-5.70000010E-3,1.2480000,,,,,-5.70000010E-3,1.2480000,,,,,-5.70000010E-3,200.00000298E-3,
Note,TDS 2004B - 20:08:31   10/09/2025,,-5.67999994E-3,1.2480000,,Note,TDS 2004B - 20:08:31   10/09/2025,,-5.67999994E-3,1.2560000,,Note,TDS 2004B - 20:08:31   10/09/2025,,-5.67999994E-3,200.00000298E-3,
,,,-5.66000026E-3,1.2480000,,,,,-5.66000026E-3,1.2480000,,,,,-5.66000026E-3,200.00000298E-3,
,,,-5.64000010E-3,1.2480000,,,,,-5.64000010E-3,1.2480000,,,,,-5.64000010E-3,200.00000298E-3,
,,,-5.61999995E-3,1.2400000,,,,,-5.61999995E-3,1.2560000,,,,,-5.61999995E-3,200.00000298E-3,
,,,-5.60000027E-3,1.2480000,,,,,-5.60000027E-3,1.2680000,,,,,-5.60000027E-3,200.00000298E-3,
,,,-5.58000011E-3,1.2560000,,,,,-5.58000011E-3,1.2520001,,,,,-5.58000011E-3,200.00000298E-3,
,,,-5.55999996E-3,1.2640001,,,,,-5.55999996E-3,1.2520001,,,,,-5.55999996E-3,200.00000298E-3,
,,,-5.54000027E-3,1.2560000,,,,,-5.54000027E-3,1.2520001,,,,,-5.54000027E-3,200.00000298E-3,
,,,-5.52000012E-3,1.2560000,,,,,-5.52000012E-3,1.2560000,,,,,-5.52000012E-3,200.00000298E-3,
,,,-5.49999997E-3,1.2480000,,,,,-5.49999997E-3,1.2600001,,,,,-5.49999997E-3,400.00000596E-3,
,,,-5.48000028E-3,1.2560000,,,,,-5.48000028E-3,1.2520001,,,,,-5.48000028E-3,200.00000298E-3,
,,,-5.46000013E-3,1.2480000,,,,,-5.46000013E-3,1.2680000,,,,,-5.46000013E-3,200.00000298E-3,
,,,-5.43999998E-3,1.2480000,,,,,-5.43999998E-3,1.2560000,,,,,-5.43999998E-3,200.00000298E-3,
,,,-5.42000029E-3,1.2560000,,,,,-5.42000029E-3,1.2400000,,,,,-5.42000029E-3,200.00000298E-3,
,,,-5.40000014E-3,1.2400000,,,,,-5.40000014E-3,1.2520001,,,,,-5.40000014E-3,200.00000298E-3,
,,,-5.37999999E-3,1.2480000,,,,,-5.37999999E-3,1.2640001,,,,,-5.37999999E-3,200.00000298E-3,
,,,-5.35999984E-3,1.2400000,,,,,-5.35999984E-3,1.2640001,,,,,-5.35999984E-3,200.00000298E-3,
,,,-5.34000015E-3,1.2480000,,,,,-5.34000015E-3,1.2520001,,,,,-5.34000015E-3,400.00000596E-3,
,,,-5.32000000E-3,1.2640001,,,,,-5.32000000E-3,1.2480000,,,,,-5.32000000E-3,200.00000298E-3,
,,,-5.29999984E-3,1.2480000,,,,,-5.29999984E-3,1.2520001,,,,,-5.29999984E-3,200.00000298E-3,
,,,-5.28000016E-3,1.2560000,,,,,-5.28000016E-3,1.2520001,,,,,-5.28000016E-3,400.00000596E-3,
,,,-5.26000001E-3,1.2560000,,,,,-5.26000001E-3,1.2520001,,,,,-5.26000001E-3,200.00000298E-3,
,,,-5.23999985E-3,1.2640001,,,,,-5.23999985E-3,1.2560000,,,,,-5.23999985E-3,200.00000298E-3,
,,,-5.22000017E-3,1.2560000,,,,,-5.22000017E-3,1.2560000,,,,,-5.22000017E-3,200.00000298E-3,
,,,-5.20000001E-3,1.2560000,,,,,-5.20000001E-3,1.2520001,,,,,-5.20000001E-3,200.00000298E-3,
,,,-5.17999986E-3,1.2480000,,,,,-5.17999986E-3,1.2480000,,,,,-5.17999986E-3,200.00000298E-3,
,,,-5.16000018E-3,1.2640001,,,,,-5.16000018E-3,1.2520001,,,,,-5.16000018E-3,200.00000298E-3,
,,,-5.14000002E-3,1.2560000,,,,,-5.14000002E-3,1.2520001,,,,,-5.14000002E-3,200.00000298E-3,
,,,-5.11999987E-3,1.2560000,,,,,-5.11999987E-3,1.2520001,,,,,-5.11999987E-3,200.00000298E-3,
,,,-5.10000018E-3,1.2560000,,,,,-5.10000018E-3,1.2520001,,,,,-5.10000018E-3,200.00000298E-3,
,,,-5.08000003E-3,1.2480000,,,,,-5.08000003E-3,1.2600001,,,,,-5.08000003E-3,400.00000596E-3,
,,,-5.05999988E-3,1.2560000,,,,,-5.05999988E-3,1.2480000,,,,,-5.05999988E-3,200.00000298E-3,
,,,-5.04000019E-3,1.2560000,,,,,-5.04000019E-3,1.2520001,,,,,-5.04000019E-3,200.00000298E-3,
,,,-5.02000004E-3,1.2480000,,,,,-5.02000004E-3,1.2480000,,,,,-5.02000004E-3,200.00000298E-3,
,,,-4.99999989E-3,1.2480000,,,,,-4.99999989E-3,1.2560000,,,,,-4.99999989E-3,200.00000298E-3,
,,,-4.98000020E-3,1.2480000,,,,,-4.98000020E-3,1.2640001,,,,,-4.98000020E-3,200.00000298E-3,
,,,-4.96000005E-3,1.2560000,,,,,-4.96000005E-3,1.2440001,,,,,-4.96000005E-3,200.00000298E-3,
,,,-4.93999990E-3,1.2560000,,,,,-4.93999990E-3,1.2520001,,,,,-4.93999990E-3,200.00000298E-3,
,,,-4.92000021E-3,1.2560000,,,,,-4.92000021E-3,1.2440001,,,,,-4.92000021E-3,200.00000298E-3,
,,,-4.90000006E-3,1.2560000,,,,,-4.90000006E-3,1.2520001,,,,,-4.90000006E-3,200.00000298E-3,
,,,-4.87999991E-3,1.2480000,,,,,-4.87999991E-3,1.2480000,,,,,-4.87999991E-3,200.00000298E-3,
,,,-4.86000022E-3,1.2560000,,,,,-4.86000022E-3,1.2520001,,,,,-4.86000022E-3,200.00000298E-3,
,,,-4.84000007E-3,1.2560000,,,,,-4.84000007E-3,1.2600001,,,,,-4.84000007E-3,200.00000298E-3,
,,,-4.81999991E-3,1.2560000,,,,,-4.81999991E-3,1.2520001,,,,,-4.81999991E-3,200.00000298E-3,
,,,-4.80000023E-3,1.2560000,,,,,-4.80000023E-3,1.2600001,,,,,-4.80000023E-3,200.00000298E-3,
,,,-4.78000008E-3,1.2560000,,,,,-4.78000008E-3,1.2360001,,,,,-4.78000008E-3,200.00000298E-3,
,,,-4.75999992E-3,1.2560000,,,,,-4.75999992E-3,1.2560000,,,,,-4.75999992E-3,200.00000298E-3,
,,,-4.74000024E-3,1.2560000,,,,,-4.74000024E-3,1.2520001,,,,,-4.74000024E-3,200.00000298E-3,
,,,-4.72000008E-3,1.2480000,,,,,-4.72000008E-3,1.2520001,,,,,-4.72000008E-3,200.00000298E-3,
,,,-4.69999993E-3,1.2560000,,,,,-4.69999993E-3,1.2520001,,,,,-4.69999993E-3,400.00000596E-3,
,,,-4.68000025E-3,1.2560000,,,,,-4.68000025E-3,1.2440001,,,,,-4.68000025E-3,200.00000298E-3,
,,,-4.66000009E-3,1.2560000,,,,,-4.66000009E-3,1.2520001,,,,,-4.66000009E-3,400.00000596E-3,
,,,-4.63999994E-3,1.2560000,,,,,-4.63999994E-3,1.2560000,,,,,-4.63999994E-3,200.00000298E-3,
,,,-4.62000025E-3,1.2560000,,,,,-4.62000025E-3,1.2520001,,,,,-4.62000025E-3,400.00000596E-3,
,,,-4.60000010E-3,1.2560000,,,,,-4.60000010E-3,1.2560000,,,,,-4.60000010E-3,200.00000298E-3,
,,,-4.57999995E-3,1.2560000,,,,,-4.57999995E-3,1.2520001,,,,,-4.57999995E-3,400.00000596E-3,
,,,-4.56000026E-3,1.2560000,,,,,-4.56000026E-3,1.2520001,,,,,-4.56000026E-3,200.00000298E-3,
,,,-4.54000011E-3,1.2560000,,,,,-4.54000011E-3,1.2640001,,,,,-4.54000011E-3,200.00000298E-3,
,,,-4.51999996E-3,1.2560000,,,,,-4.51999996E-3,1.2600001,,,,,-4.51999996E-3,200.00000298E-3,
,,,-4.50000027E-3,1.2560000,,,,,-4.50000027E-3,1.2400000,,,,,-4.50000027E-3,400.00000596E-3,
,,,-4.48000012E-3,1.2560000,,,,,-4.48000012E-3,1.2560000,,,,,-4.48000012E-3,200.00000298E-3,
,,,-4.45999997E-3,1.2560000,,,,,-4.45999997E-3,1.2480000,,,,,-4.45999997E-3,200.00000298E-3,
,,,-4.44000028E-3,1.2560000,,,,,-4.44000028E-3,1.2640001,,,,,-4.44000028E-3,200.00000298E-3,
,,,-4.42000013E-3,1.2560000,,,,,-4.42000013E-3,1.2560000,,,,,-4.42000013E-3,200.00000298E-3,
,,,-4.39999998E-3,1.2560000,,,,,-4.39999998E-3,1.2440001,,,,,-4.39999998E-3,200.00000298E-3,
,,,-4.38000029E-3,1.2480000,,,,,-4.38000029E-3,1.2600001,,,,,-4.38000029E-3,200.00000298E-3,
,,,-4.36000014E-3,1.2560000,,,,,-4.36000014E-3,1.2560000,,,,,-4.36000014E-3,400.00000596E-3,
,,,-4.33999998E-3,1.2480000,,,,,-4.33999998E-3,1.2520001,,,,,-4.33999998E-3,200.00000298E-3,
,,,-4.32000030E-3,1.2480000,,,,,-4.32000030E-3,1.2560000,,,,,-4.32000030E-3,200.00000298E-3,
,,,-4.30000015E-3,1.2560000,,,,,-4.30000015E-3,1.2520001,,,,,-4.30000015E-3,200.00000298E-3,
,,,-4.27999999E-3,1.2560000,,,,,-4.27999999E-3,1.2560000,,,,,-4.27999999E-3,200.00000298E-3,
,,,-4.26000031E-3,1.2480000,,,,,-4.26000031E-3,1.2520001,,,,,-4.26000031E-3,200.00000298E-3,
,,,-4.24000015E-3,1.2560000,,,,,-4.24000015E-3,1.2520001,,,,,-4.24000015E-3,200.00000298E-3,
,,,-4.22000000E-3,1.2560000,,,,,-4.22000000E-3,1.2600001,,,,,-4.22000000E-3,200.00000298E-3,
,,,-4.20000032E-3,1.2560000,,,,,-4.20000032E-3,1.2520001,,,,,-4.20000032E-3,200.00000298E-3,
,,,-4.18000016E-3,1.2480000,,,,,-4.18000016E-3,1.2520001,,,,,-4.18000016E-3,200.00000298E-3,
,,,-4.16000001E-3,1.2560000,,,,,-4.16000001E-3,1.2560000,,,,,-4.16000001E-3,200.00000298E-3,
,,,-4.14000032E-3,1.2560000,,,,,-4.14000032E-3,1.2560000,,,,,-4.14000032E-3,200.00000298E-3,
,,,-4.12000017E-3,1.2480000,,,,,-4.12000017E-3,1.2480000,,,,,-4.12000017E-3,200.00000298E-3,
,,,-4.10000002E-3,1.2480000,,,,,-4.10000002E-3,1.2480000,,,,,-4.10000002E-3,200.00000298E-3,
,,,-4.08000033E-3,1.2480000,,,,,-4.08000033E-3,1.2520001,,,,,-4.08000033E-3,200.00000298E-3,
,,,-4.06000018E-3,1.2560000,,,,,-4.06000018E-3,1.2640001,,,,,-4.06000018E-3,200.00000298E-3,
,,,-4.04000003E-3,1.2560000,,,,,-4.04000003E-3,1.2600001,,,,,-4.04000003E-3,200.00000298E-3,
,,,-4.01999988E-3,1.2480000,,,,,-4.01999988E-3,1.2520001,,,,,-4.01999988E-3,200.00000298E-3,
,,,-4.00000019E-3,1.2560000,,,,,-4.00000019E-3,1.2600001,,,,,-4.00000019E-3,200.00000298E-3,
,,,-3.98000004E-3,1.2560000,,,,,-3.98000004E-3,1.2520001,,,,,-3.98000004E-3,200.00000298E-3,
,,,-3.95999989E-3,1.2560000,,,,,-3.95999989E-3,1.2640001,,,,,-3.95999989E-3,200.00000298E-3,
,,,-3.94000020E-3,1.2480000,,,,,-3.94000020E-3,1.2520001,,,,,-3.94000020E-3,200.00000298E-3,
,,,-3.92000005E-3,1.2560000,,,,,-3.92000005E-3,1.2600001,,,,,-3.92000005E-3,200.00000298E-3,
,,,-3.90000013E-3,1.2480000,,,,,-3.90000013E-3,1.2480000,,,,,-3.90000013E-3,400.00000596E-3,
,,,-3.88000021E-3,1.2480000,,,,,-3.88000021E-3,1.2720001,,,,,-3.88000021E-3,200.00000298E-3,
,,,-3.86000006E-3,1.2560000,,,,,-3.86000006E-3,1.2520001,,,,,-3.86000006E-3,200.00000298E-3,
,,,-3.84000014E-3,1.2560000,,,,,-3.84000014E-3,1.2600001,,,,,-3.84000014E-3,200.00000298E-3,
,,,-3.82000022E-3,1.2560000,,,,,-3.82000022E-3,1.2600001,,,,,-3.82000022E-3,200.00000298E-3,
,,,-3.80000006E-3,1.2480000,,,,,-3.80000006E-3,1.2640001,,,,,-3.80000006E-3,200.00000298E-3,
,,,-3.78000014E-3,1.2480000,,,,,-3.78000014E-3,1.2480000,,,,,-3.78000014E-3,200.00000298E-3,
,,,-3.76000023E-3,1.2560000,,,,,-3.76000023E-3,1.2520001,,,,,-3.76000023E-3,200.00000298E-3,
,,,-3.74000007E-3,1.2560000,,,,,-3.74000007E-3,1.2560000,,,,,-3.74000007E-3,400.00000596E-3,
,,,-3.72000015E-3,1.2480000,,,,,-3.72000015E-3,1.2520001,,,,,-3.72000015E-3,400.00000596E-3,
,,,-3.70000000E-3,1.2480000,,,,,-3.70000000E-3,1.2400000,,,,,-3.70000000E-3,400.00000596E-3,
,,,-3.68000008E-3,1.2480000,,,,,-3.68000008E-3,1.2440001,,,,,-3.68000008E-3,200.00000298E-3,
,,,-3.66000016E-3,1.2480000,,,,,-3.66000016E-3,1.2520001,,,,,-3.66000016E-3,200.00000298E-3,
,,,-3.64000001E-3,1.2480000,,,,,-3.64000001E-3,1.2440001,,,,,-3.64000001E-3,200.00000298E-3,
,,,-3.62000009E-3,1.2560000,,,,,-3.62000009E-3,1.2520001,,,,,-3.62000009E-3,200.00000298E-3,
,,,-3.60000017E-3,1.2640001,,,,,-3.60000017E-3,1.2520001,,,,,-3.60000017E-3,400.00000596E-3,
,,,-3.58000002E-3,1.2560000,,,,,-3.58000002E-3,1.2520001,,,,,-3.58000002E-3,200.00000298E-3,
,,,-3.56000010E-3,1.2560000,,,,,-3.56000010E-3,1.2480000,,,,,-3.56000010E-3,200.00000298E-3,
,,,-3.54000018E-3,1.2640001,,,,,-3.54000018E-3,1.2600001,,,,,-3.54000018E-3,200.00000298E-3,
,,,-3.52000003E-3,1.2640001,,,,,-3.52000003E-3,1.2600001,,,,,-3.52000003E-3,400.00000596E-3,
,,,-3.50000011E-3,1.2640001,,,,,-3.50000011E-3,1.2600001,,,,,-3.50000011E-3,400.00000596E-3,
,,,-3.48000019E-3,1.2640001,,,,,-3.48000019E-3,1.2520001,,,,,-3.48000019E-3,200.00000298E-3,
,,,-3.46000004E-3,1.2640001,,,,,-3.46000004E-3,1.2480000,,,,,-3.46000004E-3,200.00000298E-3,
,,,-3.44000012E-3,1.2640001,,,,,-3.44000012E-3,1.2520001,,,,,-3.44000012E-3,200.00000298E-3,
,,,-3.42000020E-3,1.2640001,,,,,-3.42000020E-3,1.2520001,,,,,-3.42000020E-3,400.00000596E-3,
,,,-3.40000005E-3,1.2640001,,,,,-3.40000005E-3,1.2440001,,,,,-3.40000005E-3,200.00000298E-3,
,,,-3.38000013E-3,1.2560000,,,,,-3.38000013E-3,1.2560000,,,,,-3.38000013E-3,200.00000298E-3,
,,,-3.36000021E-3,1.2640001,,,,,-3.36000021E-3,1.2480000,,,,,-3.36000021E-3,200.00000298E-3,
,,,-3.34000005E-3,1.2640001,,,,,-3.34000005E-3,1.2560000,,,,,-3.34000005E-3,200.00000298E-3,
,,,-3.32000013E-3,1.2640001,,,,,-3.32000013E-3,1.2440001,,,,,-3.32000013E-3,200.00000298E-3,
,,,-3.30000021E-3,1.2640001,,,,,-3.30000021E-3,1.2480000,,,,,-3.30000021E-3,200.00000298E-3,
,,,-3.28000006E-3,1.2640001,,,,,-3.28000006E-3,1.2560000,,,,,-3.28000006E-3,200.00000298E-3,
,,,-3.26000014E-3,1.2640001,,,,,-3.26000014E-3,1.2480000,,,,,-3.26000014E-3,400.00000596E-3,
,,,-3.24000022E-3,1.2640001,,,,,-3.24000022E-3,1.2640001,,,,,-3.24000022E-3,200.00000298E-3,
,,,-3.22000007E-3,1.2640001,,,,,-3.22000007E-3,1.2520001,,,,,-3.22000007E-3,200.00000298E-3,
,,,-3.20000015E-3,1.2560000,,,,,-3.20000015E-3,1.2520001,,,,,-3.20000015E-3,200.00000298E-3,
,,,-3.18000023E-3,1.2640001,,,,,-3.18000023E-3,1.2520001,,,,,-3.18000023E-3,200.00000298E-3,
,,,-3.16000008E-3,1.2640001,,,,,-3.16000008E-3,1.2520001,,,,,-3.16000008E-3,200.00000298E-3,
,,,-3.14000016E-3,1.2640001,,,,,-3.14000016E-3,1.2560000,,,,,-3.14000016E-3,200.00000298E-3,
,,,-3.12000001E-3,1.2640001,,,,,-3.12000001E-3,1.2520001,,,,,-3.12000001E-3,200.00000298E-3,
,,,-3.10000009E-3,1.2640001,,,,,-3.10000009E-3,1.2560000,,,,,-3.10000009E-3,200.00000298E-3,
,,,-3.08000017E-3,1.2560000,,,,,-3.08000017E-3,1.2520001,,,,,-3.08000017E-3,200.00000298E-3,
,,,-3.06000002E-3,1.2560000,,,,,-3.06000002E-3,1.2560000,,,,,-3.06000002E-3,200.00000298E-3,
,,,-3.04000010E-3,1.2480000,,,,,-3.04000010E-3,1.2720001,,,,,-3.04000010E-3,200.00000298E-3,
,,,-3.02000018E-3,1.2480000,,,,,-3.02000018E-3,1.2720001,,,,,-3.02000018E-3,200.00000298E-3,
,,,-3.00000003E-3,1.2560000,,,,,-3.00000003E-3,1.2600001,,,,,-3.00000003E-3,200.00000298E-3,
,,,-2.98000011E-3,1.2480000,,,,,-2.98000011E-3,1.2480000,,,,,-2.98000011E-3,200.00000298E-3,
,,,-2.96000019E-3,1.2480000,,,,,-2.96000019E-3,1.2680000,,,,,-2.96000019E-3,200.00000298E-3,
,,,-2.94000003E-3,1.2560000,,,,,-2.94000003E-3,1.2560000,,,,,-2.94000003E-3,200.00000298E-3,
,,,-2.92000012E-3,1.2560000,,,,,-2.92000012E-3,1.2760000,,,,,-2.92000012E-3,400.00000596E-3,
,,,-2.90000020E-3,1.2480000,,,,,-2.90000020E-3,1.2720001,,,,,-2.90000020E-3,200.00000298E-3,
,,,-2.88000004E-3,1.2560000,,,,,-2.88000004E-3,1.2680000,,,,,-2.88000004E-3,200.00000298E-3,
,,,-2.86000012E-3,1.2560000,,,,,-2.86000012E-3,1.2680000,,,,,-2.86000012E-3,200.00000298E-3,
,,,-2.84000020E-3,1.2560000,,,,,-2.84000020E-3,1.2720001,,,,,-2.84000020E-3,400.00000596E-3,
,,,-2.82000005E-3,1.2560000,,,,,-2.82000005E-3,1.2600001,,,,,-2.82000005E-3,200.00000298E-3,
,,,-2.80000013E-3,1.2560000,,,,,-2.80000013E-3,1.2800001,,,,,-2.80000013E-3,200.00000298E-3,
,,,-2.78000021E-3,1.2560000,,,,,-2.78000021E-3,1.2800001,,,,,-2.78000021E-3,200.00000298E-3,
,,,-2.76000006E-3,1.2560000,,,,,-2.76000006E-3,1.2400000,,,,,-2.76000006E-3,200.00000298E-3,
,,,-2.74000014E-3,1.2560000,,,,,-2.74000014E-3,1.2480000,,,,,-2.74000014E-3,200.00000298E-3,
,,,-2.72000022E-3,1.2560000,,,,,-2.72000022E-3,1.2560000,,,,,-2.72000022E-3,200.00000298E-3,
,,,-2.7000001E-3,1.2560000,,,,,-2.7000001E-3,1.2640001,,,,,-2.7000001E-3,200.00000298E-3,
,,,-2.6800002E-3,1.2480000,,,,,-2.6800002E-3,1.2560000,,,,,-2.6800002E-3,200.00000298E-3,
,,,-2.6600002E-3,1.2480000,,,,,-2.6600002E-3,1.2520001,,,,,-2.6600002E-3,200.00000298E-3,
,,,-2.6400001E-3,1.2560000,,,,,-2.6400001E-3,1.2480000,,,,,-2.6400001E-3,400.00000596E-3,
,,,-2.6200002E-3,1.2560000,,,,,-2.6200002E-3,1.2600001,,,,,-2.6200002E-3,200.00000298E-3,
,,,-2.6000002E-3,1.2480000,,,,,-2.6000002E-3,1.2480000,,,,,-2.6000002E-3,200.00000298E-3,
,,,-2.5800001E-3,1.2560000,,,,,-2.5800001E-3,1.2600001,,,,,-2.5800001E-3,200.00000298E-3,
,,,-2.5600002E-3,1.2480000,,,,,-2.5600002E-3,1.2520001,,,,,-2.5600002E-3,200.00000298E-3,
,,,-2.5400002E-3,1.2560000,,,,,-2.5400002E-3,1.2520001,,,,,-2.5400002E-3,200.00000298E-3,
,,,-2.5200001E-3,1.2480000,,,,,-2.5200001E-3,1.2680000,,,,,-2.5200001E-3,200.00000298E-3,
,,,-2.5000002E-3,1.2560000,,,,,-2.5000002E-3,1.2520001,,,,,-2.5000002E-3,200.00000298E-3,
,,,-2.4800003E-3,1.2560000,,,,,-2.4800003E-3,1.2480000,,,,,-2.4800003E-3,400.00000596E-3,
,,,-2.4600001E-3,1.2560000,,,,,-2.4600001E-3,1.2600001,,,,,-2.4600001E-3,200.00000298E-3,
,,,-2.4400002E-3,1.2480000,,,,,-2.4400002E-3,1.2440001,,,,,-2.4400002E-3,200.00000298E-3,
,,,-2.4200000E-3,1.2560000,,,,,-2.4200000E-3,1.2600001,,,,,-2.4200000E-3,200.00000298E-3,
,,,-2.4000001E-3,1.2480000,,,,,-2.4000001E-3,1.2560000,,,,,-2.4000001E-3,200.00000298E-3,
,,,-2.3800002E-3,1.2560000,,,,,-2.3800002E-3,1.2400000,,,,,-2.3800002E-3,200.00000298E-3,
,,,-2.3600000E-3,1.2560000,,,,,-2.3600000E-3,1.2560000,,,,,-2.3600000E-3,200.00000298E-3,
,,,-2.3400001E-3,1.2560000,,,,,-2.3400001E-3,1.2400000,,,,,-2.3400001E-3,400.00000596E-3,
,,,-2.3200002E-3,1.2480000,,,,,-2.3200002E-3,1.2560000,,,,,-2.3200002E-3,200.00000298E-3,
,,,-2.3000001E-3,1.2560000,,,,,-2.3000001E-3,1.2520001,,,,,-2.3000001E-3,200.00000298E-3,
,,,-2.2800001E-3,1.2560000,,,,,-2.2800001E-3,1.2560000,,,,,-2.2800001E-3,200.00000298E-3,
,,,-2.2600002E-3,1.2560000,,,,,-2.2600002E-3,1.2680000,,,,,-2.2600002E-3,200.00000298E-3,
,,,-2.2400001E-3,1.2560000,,,,,-2.2400001E-3,1.2520001,,,,,-2.2400001E-3,200.00000298E-3,
,,,-2.2200001E-3,1.2480000,,,,,-2.2200001E-3,1.2520001,,,,,-2.2200001E-3,200.00000298E-3,
,,,-2.2000002E-3,1.2560000,,,,,-2.2000002E-3,1.2520001,,,,,-2.2000002E-3,200.00000298E-3,
,,,-2.1800001E-3,1.2560000,,,,,-2.1800001E-3,1.2560000,,,,,-2.1800001E-3,200.00000298E-3,
,,,-2.1600001E-3,1.2480000,,,,,-2.1600001E-3,1.2480000,,,,,-2.1600001E-3,200.00000298E-3,
,,,-2.1400002E-3,1.2480000,,,,,-2.1400002E-3,1.2480000,,,,,-2.1400002E-3,400.00000596E-3,
,,,-2.1200001E-3,1.2560000,,,,,-2.1200001E-3,1.2560000,,,,,-2.1200001E-3,400.00000596E-3,
,,,-2.1000002E-3,1.2480000,,,,,-2.1000002E-3,1.2440001,,,,,-2.1000002E-3,200.00000298E-3,
,,,-2.0800002E-3,1.2480000,,,,,-2.0800002E-3,1.2560000,,,,,-2.0800002E-3,200.00000298E-3,
,,,-2.0600001E-3,1.2480000,,,,,-2.0600001E-3,1.2640001,,,,,-2.0600001E-3,200.00000298E-3,
,,,-2.0400002E-3,1.2560000,,,,,-2.0400002E-3,1.2560000,,,,,-2.0400002E-3,200.00000298E-3,
,,,-2.0200002E-3,1.2560000,,,,,-2.0200002E-3,1.2440001,,,,,-2.0200002E-3,200.00000298E-3,
,,,-2.0000001E-3,1.2480000,,,,,-2.0000001E-3,1.2440001,,,,,-2.0000001E-3,200.00000298E-3,
,,,-1.9800002E-3,1.2560000,,,,,-1.9800002E-3,1.2560000,,,,,-1.9800002E-3,400.00000596E-3,
,,,-1.9600003E-3,1.2560000,,,,,-1.9600003E-3,1.2480000,,,,,-1.9600003E-3,200.00000298E-3,
,,,-1.9400001E-3,1.2560000,,,,,-1.9400001E-3,1.2440001,,,,,-1.9400001E-3,200.00000298E-3,
,,,-1.9200002E-3,1.2560000,,,,,-1.9200002E-3,1.2600001,,,,,-1.9200002E-3,200.00000298E-3,
,,,-1.9000001E-3,1.2560000,,,,,-1.9000001E-3,1.2600001,,,,,-1.9000001E-3,200.00000298E-3,
,,,-1.8800001E-3,1.2560000,,,,,-1.8800001E-3,1.2560000,,,,,-1.8800001E-3,200.00000298E-3,
